Apply data dictionary category labels to the associated dataset variables — dataset_cat_as_labels • madshapR
…
    Examples

{

# use DEMO_files provided by the package

dataset <- DEMO_files$dataset_TOKYO
data_dict <- as_data_dict_mlstr(DEMO_files$dd_TOKYO_format_maelstrom_tagged)
dataset <- data_dict_apply(dataset,data_dict)
dataset_cat_as_labels(dataset)

}
#> # A tibble: 50 × 9
#>    part_id gndr       height weight_ms  weight_dc dob   prg_ever  empty opentext
#>    <chr>   <chr+lbl>   <dbl> <chr+lbl>      <dbl> <chr> <chr+lbl> <lgl> <chr>   
#>  1 ID001   Male [Mal…    191 63                NA 3/22… not… [-7] NA    All chi…
#>  2 ID002   Fem… [Fem…    176 NA                65 8/15… neve… [0] NA    grow up…
#>  3 ID003   Fem… [Fem…    154 NA               121 12/1… curr… [2] NA    years o…
#>  4 ID004   Fem… [Fem…    167 Don… [-88]        NA 6/13… preg… [1] NA    flower …
#>  5 ID005   Fem… [Fem…    185 NA                45 12/1… Don’… [8] NA    rather …
#>  6 ID006   Don… [-77]    171 57                NA 3/31… not… [-7] NA    cried, …
#>  7 ID007   Fem… [Fem…    185 NA                58 4/19… Don’… [9] NA    that pa…
#>  8 ID008   Fem… [Fem…    171 NA                59 NA    curr… [2] NA    that sh…
#>  9 ID009   Don… [-77]    169 52                NA 3/14… not… [-7] NA    beginni…
#> 10 ID010   Male [Mal…    179 NA                62 10/1… not… [-7] NA    All chi…
#> # ℹ 40 more rows
…
