Bind listed data dictionaries — data_dict_list_nest • madshapR
…
#>  4 dataset_TOKYO     4     weight_ms weight_ms  weight of the p… integer   kg   
#>  5 dataset_TOKYO     5     weight_dc weight_dc  weight of the p… decimal   kg   
#>  6 dataset_TOKYO     6     dob       dob        date of birth o… date      years
#>  7 dataset_TOKYO     7     prg_ever  prg_ever   whether the par… integer   NA   
#>  8 dataset_TOKYO     8     empty     empty      empty column     integer   NA   
#>  9 dataset_TOKYO     9     opentext  opentext   open text        text      NA   
#> 10 dataset_MELBOURNE 1     id        id         id of the parti… text      NA   
#> 11 dataset_MELBOURNE 2     Gender    Gender     Gender           integer   NA   
#> 12 dataset_MELBOURNE 3     BMI       BMI        Body Mass Index  decimal   kg/m…
#> 13 dataset_MELBOURNE 4     age       age        Age of Particip… integer   years
#> 14 dataset_MELBOURNE 5     smo_stat… smo_curr   Whether the par… integer   NA   
#> 15 dataset_MELBOURNE 6     prg_curr  prg_curr   Are you current… integer   NA   
#> 
#> $Categories
#> # A tibble: 23 × 5
#>    table         variable  name   `label:en`            missing
#>    <chr>         <chr>     <chr>  <chr>                 <chr>  
#>  1 dataset_TOKYO gndr      Male   Male                  FALSE  
#>  2 dataset_TOKYO gndr      Female Female                FALSE  
#>  3 dataset_TOKYO gndr      -77    Don’t want to answer  TRUE   
#>  4 dataset_TOKYO weight_ms -88    Don’t want to answer  TRUE   
#>  5 dataset_TOKYO weight_ms -99    Don’t know            TRUE   
#>  6 dataset_TOKYO prg_ever  0      never pregnant        FALSE  
#>  7 dataset_TOKYO prg_ever  1      pregnant once or more FALSE  
#>  8 dataset_TOKYO prg_ever  2      currently pregnant    FALSE  
#>  9 dataset_TOKYO prg_ever  8      Don’t want to answer  TRUE   
#> 10 dataset_TOKYO prg_ever  9      Don’t know            TRUE   
#> # ℹ 13 more rows
…
