Built-in material allowing the user to test the package with demo material — DEMO_files • madshapR
…
taxonomy_opal
Opal Taxonomy

...

    Examples

{

DEMO_files

}
#> $`data_processing_elements - final`
#> $`data_processing_elements - final`$dataProcessing
#> # A tibble: 52 × 19
#>    index ss_dataschema_table            dataschema_variable ss_acronym ss_table 
#>    <dbl> <chr>                          <chr>               <chr>      <chr>    
#>  1     1 harmonized.dataset_MELBOURNE_1 adm_unique_id       MELBOURNE  dataset_…
#>  2     1 harmonized.dataset_MELBOURNE_2 adm_unique_id       MELBOURNE  dataset_…
#>  3     1 harmonized.dataset_PARIS       adm_unique_id       PARIS      dataset_…
#>  4     1 harmonized.dataset_TOKYO       adm_unique_id       TOKYO      dataset_…
#>  5     2 harmonized.dataset_MELBOURNE_1 adm_study           MELBOURNE  dataset_…
#>  6     2 harmonized.dataset_MELBOURNE_2 adm_study           MELBOURNE  dataset_…
#>  7     2 harmonized.dataset_PARIS       adm_study           PARIS      dataset_…
#>  8     2 harmonized.dataset_TOKYO       adm_study           TOKYO      dataset_…
#>  9     3 harmonized.dataset_MELBOURNE_1 adm_year_dce        MELBOURNE  dataset_…
#> 10     3 harmonized.dataset_MELBOURNE_2 adm_year_dce        MELBOURNE  dataset_…
#> # ℹ 42 more rows
#> # ℹ 14 more variables: ss_variables <chr>, ss_format <lgl>,
#> #   ss_time_period <lgl>, valueType <chr>, ss_time_collection <lgl>,
#> #   ss_source_information <lgl>, ss_informant <lgl>, ss_keywords <lgl>,
#> #   comment <lgl>, harmo_status <lgl>, harmo_status_detail <lgl>,
#> #   rule_category <chr>, harmo_rule <chr>, comment_internal <lgl>
#> 
#> 
#> $`data_processing_elements - with error`
#> $`data_processing_elements - with error`$dataProcessing
#> # A tibble: 52 × 19
#>    index ss_dataschema_table            dataschema_variable ss_acronym ss_table 
#>    <dbl> <chr>                          <chr>               <chr>      <chr>    
#>  1     1 harmonized.dataset_MELBOURNE_1 adm_unique_id       MELBOURNE  dataset_…
#>  2     1 harmonized.dataset_MELBOURNE_2 adm_unique_id       MELBOURNE  dataset_…
#>  3     1 harmonized.dataset_PARIS       adm_unique_id       PARIS      dataset_…
#>  4     1 harmonized.dataset_TOKYO       adm_unique_id       TOKYO      dataset_…
#>  5     2 harmonized.dataset_MELBOURNE_1 adm_study           MELBOURNE  dataset_…
#>  6     2 harmonized.dataset_MELBOURNE_2 adm_study           MELBOURNE  dataset_…
#>  7     2 harmonized.dataset_PARIS       adm_study           PARIS      dataset_…
#>  8     2 harmonized.dataset_TOKYO       adm_study           TOKYO      dataset_…
#>  9     3 harmonized.dataset_MELBOURNE_1 adm_year_dce        MELBOURNE  dataset_…
#> 10     3 harmonized.dataset_MELBOURNE_2 adm_year_dce        MELBOURNE  dataset_…
#> # ℹ 42 more rows
#> # ℹ 14 more variables: ss_variables <chr>, ss_format <lgl>,
#> #   ss_time_period <lgl>, valueType <chr>, ss_time_collection <lgl>,
#> #   ss_source_information <lgl>, ss_informant <lgl>, ss_keywords <lgl>,
#> #   comment <lgl>, harmo_status <lgl>, harmo_status_detail <lgl>,
#> #   rule_category <chr>, harmo_rule <chr>, comment_internal <lgl>
#> 
#> 
#> $`data_processing_elements - work in progress`
#> $`data_processing_elements - work in progress`$dataProcessing
#> # A tibble: 52 × 19
#>    index ss_dataschema_table            dataschema_variable ss_acronym ss_table 
#>    <dbl> <chr>                          <chr>               <chr>      <chr>    
#>  1     1 harmonized.dataset_MELBOURNE_1 adm_unique_id       MELBOURNE  dataset_…
#>  2     2 harmonized.dataset_MELBOURNE_2 adm_unique_id       MELBOURNE  dataset_…
#>  3     3 harmonized.dataset_PARIS       adm_unique_id       PARIS      dataset_…
#>  4     4 harmonized.dataset_TOKYO       adm_unique_id       TOKYO      dataset_…
#>  5     5 harmonized.dataset_MELBOURNE_1 adm_study           MELBOURNE  dataset_…
#>  6     6 harmonized.dataset_MELBOURNE_2 adm_study           MELBOURNE  dataset_…
#>  7     7 harmonized.dataset_PARIS       adm_study           PARIS      dataset_…
#>  8     8 harmonized.dataset_TOKYO       adm_study           TOKYO      dataset_…
#>  9     9 harmonized.dataset_MELBOURNE_1 adm_year_dce        MELBOURNE  dataset_…
#> 10    10 harmonized.dataset_MELBOURNE_2 adm_year_dce        MELBOURNE  dataset_…
#> # ℹ 42 more rows
#> # ℹ 14 more variables: ss_variables <chr>, ss_format <lgl>,
#> #   ss_time_period <lgl>, valueType <chr>, ss_time_collection <lgl>,
#> #   ss_source_information <lgl>, ss_informant <lgl>, ss_keywords <lgl>,
#> #   comment <lgl>, harmo_status <lgl>, harmo_status_detail <lgl>,
#> #   rule_category <chr>, harmo_rule <chr>, comment_internal <lgl>
…
#>  8 580632          2        0
#>  9 304624          1        0
#> 10 637551          1      -77
#> 11 279817         NA      -77
#> 12 235415          3        1
#> 13 373673          2        1
#> 14 485098          1        9
#> 15 299427          2      -77
#> 16 854073          1      -77
#> 17 197666         NA        1
#> 18 130327          1        9
#> 19 220050          2        1
#> 
#> $dataset_PARIS
#> # A tibble: 24 × 7
#>    ID             SEX   BMI   AGE   SMO SMO_QTY PRG_EVER
#>    <chr>        <dbl> <dbl> <dbl> <dbl>   <dbl>    <dbl>
#>  1 Paris_687393     1  22.2    52     1      32        0
#>  2 Paris_585666     0  15.2    49     1       8       -8
#>  3 Paris_75802      0  22.7    43     1      48       -8
#>  4 Paris_412072     1  NA      59     1      11        0
#>  5 Paris_404333     1  26.2    40     1      18        1
#>  6 Paris_554985     0  16.0    47     1       7       -8
#>  7 Paris_714168     1  19.0    46     1      18       NA
#>  8 Paris_145477     1  16.9    53     0      -8        1
#>  9 Paris_202076     1  29.9    35     1      36        1
#> 10 Paris_847235     0  20.6    NA     0      -8       -8
#> # ℹ 14 more rows
#> 
#> $`dataset_TOKYO - ERROR WITH DATA`
#> # A tibble: 50 × 9
#>    part_id gndr   height weight_ms weight_dc dob        prg_ever empty opentext 
#>    <chr>   <chr>   <dbl>     <dbl>     <dbl> <chr>         <dbl> <lgl> <chr>    
#>  1 ID001   Male      191        -7      NA   3/22/1990        -7 NA    All chil…
#>  2 ID002   Female    191         0      65.3 8/15/2001         0 NA    grow up,…
#>  3 ID003   Female    191         8      45   12/17/1996        8 NA    rather d…
#>  4 ID004   Female    191         1      NA   6/13/1990         1 NA    flower a…
#>  5 ID005   Female    191         8      45   12/17/1996        8 NA    rather d…
#>  6 ID006   -77       191        -8      NA   3/31/1981        -8 NA    cried, O…
#>  7 ID007   Female    191         9      58   4/19/1988         9 NA    that pas…
#>  8 ID008   NA         NA        NA      NA   NA               NA NA    NA       
#>  9 ID009   -77       191        -7      NA   3/14/1976        -7 NA    beginnin…
#> 10 ID010   Male      191        -7      65.3 10/19/1993       -7 NA    All chil…
#> # ℹ 40 more rows
#> 
#> $dataset_TOKYO
#> # A tibble: 50 × 9
#>    part_id gndr   height weight_ms weight_dc dob        prg_ever empty opentext 
#>    <chr>   <chr>   <dbl>     <dbl>     <dbl> <chr>         <dbl> <lgl> <chr>    
#>  1 ID001   Male      191        63        NA 3/22/1990        -7 NA    All chil…
#>  2 ID002   Female    176        NA        65 8/15/2001         0 NA    grow up,…
#>  3 ID003   Female    154        NA       121 12/17/1996        2 NA    years ol…
#>  4 ID004   Female    167       -88        NA 6/13/1990         1 NA    flower a…
#>  5 ID005   Female    185        NA        45 12/17/1996        8 NA    rather d…
#>  6 ID006   -77       171        57        NA 3/31/1981        -7 NA    cried, O…
#>  7 ID007   Female    185        NA        58 4/19/1988         9 NA    that pas…
#>  8 ID008   Female    171        NA        59 NA                2 NA    that she…
#>  9 ID009   -77       169        52        NA 3/14/1976        -7 NA    beginnin…
#> 10 ID010   Male      179        NA        62 10/19/1993       -7 NA    All chil…
#> # ℹ 40 more rows
…
#>  5              1                2          2 description::… descrip… level     
#>  6              1                2          3 description::… descrip… level     
#>  7              2                1          1 auth::importa… auth     importance
#>  8              2                1          2 auth::importa… auth     importance
#>  9              3                1          1 relevance::ac… relevan… accuracy  
#> 10              3                1          2 relevance::ac… relevan… accuracy  
#> 11              3                1          3 relevance::ac… relevan… accuracy  
#> 12              3                1          4 relevance::ac… relevan… accuracy  
#> 13              3                1          5 relevance::ac… relevan… accuracy  
#> 14              4                1          1 Mlstr_additio… Mlstr_a… Source    
#> 15              4                1          2 Mlstr_additio… Mlstr_a… Source    
#> # ℹ 1 more variable: term <chr>
#> 
#> $taxonomy_opal
#> # A tibble: 1,073 × 6
#>    index_taxonomy index_vocabulary index_term taxonomy         vocabulary term  
#>             <int>            <int>      <int> <chr>            <chr>      <chr> 
#>  1              1                1          1 Mlstr_additional Source     Quest…
#>  2              1                1          2 Mlstr_additional Source     Physi…
#>  3              1                1          3 Mlstr_additional Source     Cogni…
#>  4              1                1          4 Mlstr_additional Source     Biosa…
#>  5              1                1          5 Mlstr_additional Source     Gover…
#>  6              1                1          6 Mlstr_additional Source     Other 
#>  7              1                2          1 Mlstr_additional Target     Parti…
#>  8              1                2          2 Mlstr_additional Target     Child…
#>  9              1                2          3 Mlstr_additional Target     Paren…
#> 10              1                2          4 Mlstr_additional Target     Grand…
#> # ℹ 1,063 more rows
#> 
#> $taxonomy_opal_mlstr
#> # A tibble: 1,073 × 11
#>    index_taxonomy index_vocabulary index_term taxonomy         vocabulary term  
#>  *          <int>            <int>      <int> <chr>            <chr>      <chr> 
#>  1              1                1          1 Mlstr_additional Source     Quest…
#>  2              1                1          2 Mlstr_additional Source     Physi…
#>  3              1                1          3 Mlstr_additional Source     Cogni…
#>  4              1                1          4 Mlstr_additional Source     Biosa…
#>  5              1                1          5 Mlstr_additional Source     Gover…
#>  6              1                1          6 Mlstr_additional Source     Other 
#>  7              1                2          1 Mlstr_additional Target     Parti…
#>  8              1                2          2 Mlstr_additional Target     Child…
#>  9              1                2          3 Mlstr_additional Target     Paren…
#> 10              1                2          4 Mlstr_additional Target     Grand…
#> # ℹ 1,063 more rows
#> # ℹ 5 more variables: vocabulary_short <chr>, index_term_scale <int>,
#> #   taxonomy_scale <chr>, vocabulary_scale <chr>, term_scale <chr>
…
